40 -56 112 -72 680
-24 104 -64 -40 728
64 -16 80 -72 -40 680
160 -160 656
112 -72 16 -144 616
72 -120 184 -56 528
48 -88 -64 -80 680
-40 -80 -120 728
32 -72 -24 -48 784
208 -96 64 -80 512
40 -160 240 -120 400
48 -72 264 -80 496
-48 -240 200 -120 352
64 -80 120 -160 -40 488
40 -200 80 -160 480
152 -240 -40 -64 464
64 -56 112 -96 -80 544
56 -128 40 -144 -200 -80 296
-40 -80 -200 648
32 -176 -144 -120 488
64 -88 72 -48 -40 640
56 -104 96 -80 -200 -64 344
40 -56 112 -72 680
48 -144 -200 -160 408
-80 -240 -120 528
360 -80 536
56 -320 176 -40 -200 -120 32
40 -96 64 -144 616
-56 416 -240 120 -40 80
-48 112 -200 -160 440
