25

15
10
10
10
-1
10
-2
10
-3
10
5
3
-4
-5
-6

8
5
8
8
3
5
-1
-2
-3

6
7
2
9
-1
5
-2

9
4
4
4
4
4
-1
4
-2
4

11
3
3
3
4
5
5
5
5
-1
-2
-3

8
2
3
5
-1
4
4
-2

7
8
6
-1
7
8
5
-2

9
6
6
-1
3
3
3
3
-2
-3

5
3
3
2
-1
2

6
5
3
7
-1
-2
-3

8
4
6
4
4
-1
-2
6
5

10
8
4
-1
3
2
5
5
-2
-3
-4

12
6
6
6
-1
3
2
3
-2
2
-3
1
5

5
4
4
-1
-2
3

10
8
4
-1
7
5
-2
6
4
4

9
5
4
3
2
1
-1
3
-2
2

11
7
6
-1
5
3
-2
4
4
6
-3

10
6
5
5
5
3
-1
4
-2
-3
2

7
8
7
6
5
4
-1
3

5
2
3
5
5
-1

9
4
4
4
-1
2
3
5
-2
-3

12
5
6
5
4
-1
3
-2
2
6
6
-3
-4

15
7
7
7
7
-1
6
6
5
-2
4
4
4
-3
3
3

10
6
6
-1
5
5
-2
4
4
-3
3

11
4
4
4
-1
3
5
5
5
-2
2
-3
