26

10
15
12
3
2
2
-4
12
8
14
8
-1
1
-3
15

14
8
-3
-1
3
8
7
3
-4
8
-4
5
8
1
4
-1
-4
8
5

6
5

15
9
10
11
6
7
7
5

-3
15
14
3
-2
9
8
7
-4
-2
7
-3
-1
-4

-4
15

10
8
3
12

14
6
-2
9
6
-4
12
14
12
6
1
-1
6
15
6

-5
8
11
-1
-2
15
10
5

9

12
4

5
6
15
4

6
10
14
15

13
5
12
9
6
3
13
-2

9
14
-3
9
14
5
10
8
5
6
2
14
-5
-3
6
5
-5
1
5
14

14
8
12
9
5
12
-5
-3
5
14
-2
12
12

11
1
1
-4
-3
15
-5
3
9
10
6
15
6
-4
-5
10

-3
9
-1
-2
15
2
-3
-1
11
12
8
-4
10
4
-2
1
-2

9
13
9
13
12
6
6
15
12
15
4

12
-5
6
2

6
6
11
4
-4
9
-4
13
-3
-1
9
5

-4
-4
-5
-2
9
4
9
-1
15
14

-3
12
10
-1
14

-5
12
7
4
-1
-2
2
8

-2
9
-4
12
13
2
1
8
12
12

3
2
-5
2
12
4
14
7
