23

1
7
2
-1
2
-2
2
-2
1
-2
1

9
5
4
5
-2
-1
1
4
-3
-3

100
14
5
-1
-2
40
8
-3

2
2
2
2
2
2
2
-5
-1

5
6
7
8
9
10
11
12
13
-4
-3
-2
-1

123
-1

7
7
7
7
-3
-1
7
7
7
14
2

23
34
2
2
2
-1
-1
10

12
-1
12
12
-2
11
7
7
20
-2
1

5
5
3
3
3
3
3
3
-2
-2
-2
1
1
1
-5

5
3
3
-1
-1
-1

124

61
61

112
1
1
1
1
1
1
-1
1
1
1
1
1
1
-5
-6

60
30
10
-1

23
-3
1
1
7
7
-1
-1
5
3
3

20
-1
20
-1
20
-1
20
-1
20
40
-2
1
1
1

45
45
10
10
-1
-1
-1
-1
124

13
13
13
-2

-1
-1
-1
-1
23
23
-1

12
52
-7
-7
1
1
1
-1

13
13
23
34
-1

13
13
34
-1
