27

-2

2
5
3
6
4
6
5
4
4
6
7

8
-4
3
1
-2
7
6
-1
7
8
-3

2
2
7
3
6
7
7

1
1
-2
6
-2
1
6
4
-4
3
-4

-2
6
-1

3

7
-2
6

-4
6
-2
4
-4
3
7
3
2
2

-2
4
-4
-2
1
-4
4
4
5
6
-1

3
2
8
-2
-2
7
5
-1
2
8
5
-2
-1
-2

-4

5
-3
-2
-1
-3
6
5
6
6
3
1
4
8

6

-1
6
2
-2

4
5
-3
6
2
-4
7
1
6
7
7

-1
5
-1

3

5
7
7
5
3
7
-4
6
-3
-2
6
-4
-4
1

-1
-2
2
8
1
2
-1
3
8

1
1
-4
-4
-2
-1
-1
-1
-2
-3
-2
7

-4
1
2
-4
1
4
5

-4
-4
2
5
7
3
-2
4
1
7
-4
1
-3
-4

2
3
8
-4
-4
-1
4
-2
2
7
6
4
-1

6
3
7
-4
8
8
1
7
-1

-3
-1
6
5
-2
4
-1

8
6
-4
5
2
-3
2
2
5
8
