-32 -48 -64 824
-16 8 -24 32 -24 -72 -72 24 -16 -32 592
-16 -8 -24 -72 -32 -16 -80 688
40 -24 -32 872
-16 8 -8 -40 -8 16 -32 -16 784
-40 944
-24 16 -8 -24 -64 816
-80 -16 -8 144 -48 -72 576
-72 -40 -80 -40 -8 16 -48 -56 -64 496
-56 928
-72 -8 896
-40 -56 -32 -32 -80 -80 -48 -64 496
-24 -40 -56 848
-32 -32 -32 872
-72 -24 8 -16 -72 -72 -56 616
-56 -56 -64 792
-8 -24 -24 -8 8 -72 -80 -64 640
-40 -8 96 -80 -64 -72 -8 -8 -16 528
-80 -40 -56 -32 -72 672
-24 -16 -32 -32 -48 -80 -16 -24 -48 -16 576
-64 920
-8 8 -40 -48 24 -40 24 -56 -72 -80 -72 432
-16 8 -56 -40 56 -16 -48 -24 -80 -16 -80 -64 392
-40 -24 -80 824
16 -72 -64 -48 760
-64 -32 -24 -8 8 -72 -32 -72 -40 -80 480
24 -16 -64 -80 776
