-24 -24 -8 -8 -16 872
-40 -16 -32 880
-8 976
-24 -16 -24 -32 -16 840
-16 968
-16 968
992
992
992
992
992
992
992
992
992
992
992
992
992
992
32 -16 928
64 -16 896
-16 968
992
992
-24 -24 -8 -8 -16 -24 -24 -8 -8 -16 752
-24 -24 -8 -8 -16 872
-24 -24 -8 -8 -16 872
-8 8 -24 -16 904
-24 24 -8 -8 896
-8 8 -24 -16 904
-24 -24 -8 912
-24 -24 -8 -8 -16 872
