-24 960
-72 -48 856
-40 -16 -64 848
-64 -24 -8 -56 -136 -48 -56 -40 -16 -104 360
96 -128 -48 -104 584
-128 -96 -88 -32 -56 -152 -24 -120 232
-144 -96 -88 -32 600
-24 -144 -48 -104 640
-144 -120 712
-80 -80 -112 -88 600
-88 -128 760
-64 -8 -8 -16 864
992
-112 -32 -8 816
-72 912
-104 -72 800
-160 -40 -32 -16 -120 584
-8 -72 80 -64 736
-8 -64 -120 776
-136 -104 -16 -128 576
-16 -24 -40 888
-160 120 -40 -112 528
-112 -136 -152 -104 456
-152 -32 792
-48 -16 912
-80 -64 832
-160 -48 -80 -96 -136 432
-88 -48 -96 736
-112 872
-16 968
