24

4
-1
1
1
1
7
2
7
5

3
3
-2
1
2
9
4
2
8
-5
-4

4
-1
7
7
5
8
-2
5
9
5
5

9
3
-1
5
3
-3
4
-3
2
-2

2
5
8
-1
2
5
-4
4
4
9

8
-1
2
2
5
-1
-2
8
2
3
-1

6
5
1
5
5
9
4
7
5

7
-1
6
8
3
8
9
1
1

6
3
-1
5
6
9
3
2
-1

4
5
8
-2
9
1
9
-4
6
-4

5
5
5
-3
-1
6
4
3
8
-4
-2

2
3
6
7
2
4
-1
1
9
4

9
4
3
6
9
-1
5
-5
5
2
9

2
2
5
4
5
3
5
1
4
8
9

5
1
5
3
4
4
1
5
1
5

9
8
-1
8
1
9
-3
8
6
7
1

3
-1
6
5
-1
-1
4
5
-1
8
2

8
5
5
9
4
4
1
5
6
6
4

7
3
8
3
5
4
8
9
3
-2

9
-1
8
-1
2
1
6
1
8
7
-6

5
4
7
7
9
-1
1
2
4

4
5
7
6
3
1
1
-1
7
3

7
6
1
4
6
5
1
7
5
8
-4

9
8
-1
7
3
-3
-2
3
-1
4
