22

5
2
5
-1

2
4
2
2
-3
8

1
2
3
4
5
6
7
-2
2
-3
3
-4
2
2

-4
-4

3
-1
2
-1
10
-1
12
2
3
-2

7
3
4
5
5

5
3
3
-1
-1
5
6

10
-10
-6
-4
2
6
9
3
13
-4
4

3
6
8
5
8
-7
-3
-7
3
-8
-5
-10
-10

2
1
-1
1

1
6
3
6
3

-2
-10
12
-10
-10

-9
4
-6
8
2
-4
-2
3
3
7
3

8
-1
-9
-8
-10
15

2
3
13
11
-4
-6
-7

-4
-1
6
-7
6
7
8
5

5
4
8
1
2
-6
-6
9

6
12
-5
4
-1
-9
13
12
3
13

7
15
-9
-1
11
-7
5
-1
-4
12

10
13
4
7
8
-8
-4
-7

-8
11
-1
5
11
9
-6
13
-8
7
10
3
2

2
-10
-6
15
-8
-8
7
-5
15
2
8
9
-3
-4
-7
-9
