-8 8 -16 936
-32 -8 -8 -16 -32 -24 -8 808
-8 -40 928
-8 56 -24 880
-32 8 -40 -16 864
-8 -24 944
-24 -8 -16 -32 880
-8 16 -8 -24 904
32 -24 920
-32 -24 -40 872
-16 968
-8 -24 944
-24 -8 -24 40 -40 816
-32 -24 104 -16 784
16 -8 952
-40 32 -16 -40 832
-16 -16 -16 920
-24 -40 912
-8 -32 936
-16 8 -24 -24 888
