25

2
7
-1
6
6
6
6
-2
6
1
10
6
9
4
2

8
8
6
4
2
-3
4
3
7
7
2
-4
8

8
1
5
-3

2
3
7
5
10
-1
-4
10
-3
1
5
10
1

10
6
-1
3
4
4
8

6
-1
5
2

7
10
-2
9
9
9
9
-1

1
6
5
2
4
6
-1
8
9
10
4
-5
6
-1

5
10
8
2
10
3
5
-3
-3
5

5
2
-2
-1
8
8
8
3
8
9
5
-3
7
2
4

2
9
3
-3
5

4
8
8
-2
1
-3
1
-2
1
-2

4
6
6
5
-3
6
4
10
10
-4
6

8
10

6
3
7
7

3
9
1
-1
1
7
-3

9
5
10
9
-2
6
9
10
-5
6
6
-3
7
-4
-5
4
-4
8
-1

5
8
5
9
-3
-1
3
8
10
-2
-3

3
7
4
-2
-2
9
2
7
2
4
8
-3
3
5
-4
-7
1

9
6
8
4
3
6
-1
7
6
9
1
-7
2
-2

7
7
10
6
-2
5
10
3
4
-4
7
8
-1
2
-1

4
8
-2
2
10
5
8
-1

1
2
9
6
5
1
-1
3
-6
8
-3
9
-6
9
-4

10
-1
8
-1
8
-1
6
5
2
8
-1
4

9
-1
10
10
1
8
6
-5
4
-4
-1
3
10
1
9
1
4
