25

7
-1
15
13

3
11

7
-1
15
9

3
-1
8
-1
3
10
14
-3
-2
2

15
5
-2
-1
1

3
-1
6
5
15
7
14
5
3
15
15
-4
8
15

5
12
-2
1
9
13
7
15
11

8
-1
15
13
-2
-1
6
5
1
12
-4
2
10
8
-6
7
-6
15
-6

10
-1
9
-1
10
4
6
-3
15
9
-4
-3
1

5
8
-2
8
15

12
9
8
2
15
15
14
-7
12
10
-5
-4
15

5

9
15
15
-3
-2
-1
6
11
15

10
3
15
15
-4
3
-4

9
-1
11
-1
11
-1
15

3
9
3
5
3
1
13

10
-1
13
-1
4
4
2
-4
-3
7
-1
5
3
1
15
12
13
11

3
-2
-1
2
13
2
-3
1
6

4
-1
8
-2
-1
15
11

3
-1
15
-1
5
-1

11
15
4
-3
-2
-1
3
-1
6
8
-2
15
13
-3
7
-1
-2
1
-3
3
15

15
-1
15
11
8
3
1
9
-6

14
-1
8
-1

15
-2
-1
1
9
12
-3
1
8
-2
15

8
10
5
-3
15
1
8
10
-6
5
-3
-1
15
-1
