25

2
3
5
9
-3
3
-1
2
10
3
7
6
-3
7

3
5
-2
9
-1
3
3
7
-3
3
-2

2
-1
4
3
5
-1
7
-1
9
6
-3

2
7
4
4
8
10
5
10
-2
9
-1
3
2
5
9

3
10
8
5
5
4
-1
-2
2
2
6
5

2
6
4
4
-1
8
7
-3
1
-2
1
-1
-3
4
1

7
3
4
-2
1
9
6
-3
-1
6
7
-2

9
2
2
1
-3
-1
-3
7
6
1
7
-2
8

7
4
1
2
-3
9
1
8
-3
-1
10
-2
4
6

2
3
3
-3
7
6
-2
7
-2
-2
7
10

3
2
7
5
1
-2
-1
-3
-3
-3
6
5
5
4
8

7
2
4
-2
3
-1
7
5
-2
-2
-2
6
8
-3
-1
4

1
-1
3
2
-2
8
5
3
3
-1
2
-2
3
-2
-2

3
9
4
8
1
9
-2
6
7
-1
-2
3
-3
-2
5
4
6
9
-3
8

2
4
3
7
7
-1
-2
3
-1
9
5
4
6
3
-2
-2
-3
-1
9
9

1
1
1
7
3
3
10
-2
10
5
-2
5

3
3
10
2
-1
-1
1
8
9
-3
-2
5
4
-2

4
2
4
4
-1
3
3
4
-1
9
1
10
2
4

1
3
10
6
2
-2
-3
2
-1
7
2
5
-1
10
1
-2
2
3
7
10

5
7
3
-1
9
9
-1
9
-3
3

3
3
2
7
6
-1
5
-2
2
-3
2
-3
5
9

1
2
5
-3
8
-2
5
8
7
3

6
-1
5
3
2
-2
3
-1
8
-1
-3
2
-2
10
8

7
3
9
7
-1
3
7
2
2
-2
5
8
-2
-1
4
2
-3

9
-1
5
5
7
-1
1
8
-1
6
10
-3
8
8
10
-2
10
-2
