20

10
15
12
3
2
2
-4
12
8
14
8
-1
1
-3
15

14
8
-3
-1
3
8
7
3
-4
8
-4
5
8
1
4
-1
-4
8
5

3
10
8
5
5
4
-1
-2
2
2
6
5

2
6
4
4
-1
8
7
-3
1
-2
1
-1
-3
4
1

7
3
4
-2
1
9
6
-3
-1
6
7
-2

9
2
2
1
-3
-1
-3
7
6
1
7
-2
8

7
4
1
2
-3
9
1
8
-3
-1
10
-2
4
6

2
3
3
-3
7
6
-2
7
-2
-2
7
10

3
2
7
5
1
-2
-1
-3
-3
-3
6
5
5
4
8

7
2
4
-2
3
-1
7
5
-2
-2
-2
6
8
-3
-1
4

1
-1
3
2
-2
8
5
3
3
-1
2
-2
3
-2
-2

3
9
4
8
1
9
-2
6
7
-1
-2
3
-3
-2
5
4
6
9
-3
8

2
4
3
7
7
-1
-2
3
-1
9
5
4
6
3
-2
-2
-3
-1
9
9

1
1
1
7
3
3
10
-2
10
5
-2
5

3
3
10
2
-1
-1
1
8
9
-3
-2
5
4
-2

4
2
4
4
-1
3
3
4
-1
9
1
10
2
4

-3
12
10
-1
14

-5
12
7
4
-1
-2
2
8

-2
9
-4
12
13
2
1
8
12
12

3
2
-5
2
12
4
14
7
