-8 64 -120 -128 -16 -16 -96 -64 -112 -64 224
24 -64 -8 -64 -40 -40 -64 -64 -64 488
-24 -80 -16 -40 -40 -40 -32 -48 608
-16 -8 -32 -32 104 -56 696
-56 64 -72 -48 -56 656
-56 8 -16 16 -8 -48 -56 -64 656
-32 16 -32 32 -72 -64 -80 -48 552
-16 -56 -80 -56 752
-48 -56 -40 -40 -40 -32 -64 616
-32 16 -48 872
-24 112 -24 -24 776
-24 -40 32 -48 40 -8 -72 -56 -72 -64 456
-72 -72 -56 72 -32 -48 -24 560
-8 24 -56 -24 -24 -80 -80 -40 -40 544
-8 40 -32 64 -64 -72 664
-8 -16 -16 -32 -32 -24 -32 -72 -80 -32 568
96 -80 -112 680
-16 -72 -56 824
-72 -96 -104 -16 -8 -64 -96 -96 376
-24 -16 -16 -96 -32 -112 -56 584
