25

2
-1
28
-1
-1
-1
15

33
-1
13
13
-1
14
-1
-1
3
43
-1

9
-1
4
4
19
3
29
1
-1
4
2

4
12
3
7
23
-2

3
1
3
-1
3
-1
23
-2
2
-1
3

74
-1
-2
-4
-3
-1

1
36
-2
1
9
-1
24
-2

1
3
-3
6
18
3
-4
15

15
-4
8
14
-2
12

24
-1
12
-1
-2
-3
23

3
17
8
-1
5
-2
-1
1
2
3
4

7
-1
-2
1
2
3
1
14
-4
-3

21
4
-2
-1
3
-6
2
12
2
3
5

9
7
21
-2
-1
-3

4
2
-1
-4
4
12
-1
23
-4
11

4
3
-8
14
22
21
-3
4
1

5
4
-2
33
-2
-4
39
-3
2
-1
-3
8

3
-1
32
-3
-2
28
4
1

1
7
-3
-2
-1
-2

4
2
-3
-2
-4
8
-4
1

9
4
3
8
-1
-1
-4

19
-2
-2
-4
41
3
-3
21

2
-2
-2
3
34
13
19
-2
-5
6

19
23
-2
-1
-2
-2
14
33
-2
17

14
-2
46
-1
-2
