-8 -8 -32 -16 -40 -40 -24 -32 -48 -48 -8 -16 -48 520
-24 -32 8 -16 -16 -40 -40 -40 -16 -48 -24 600
-16 16 -8 24 -24 -40 -40 -24 -48 -40 -48 576
-8 -48 920
32 -24 -16 -48 -40 -48 -48 680
-48 -32 -24 -16 -16 -8 -16 -32 -40 -40 -48 -24 -32 -48 -8 440
80 -16 -40 -32 -16 -40 -32 -40 -40 584
16 -8 -48 -32 -24 -16 -24 -24 736
32 -24 -16 -8 -32 -48 -16 -8 -16 -32 -40 632
8 -24 -8 -16 -40 856
-40 -48 -40 -32 -8 -32 -8 -8 -48 656
-24 -48 -24 -24 840
40 -40 -40 848
8 -40 -16 -24 8 -48 -48 -40 -48 -24 -40 -32 -48 464
24 -48 -40 -40 -8 -24 -40 -24 680
-16 -8 -40 -24 -8 856
8 -24 -24 -24 -8 -32 -40 -8 -32 -8 -16 -32 -32 600
-8 -24 -32 -32 -16 -8 -40 -32 -48 680
-16 -32 -24 -8 -32 -48 -40 -48 -40 -32 -24 -16 -40 -8 -16 -24 -40 -24 -32 296
-8 -8 -16 -32 -8 -24 -16 -24 -32 -40 -24 -32 632
-24 960
-8 976
-8 -8 -16 -32 -16 -40 -8 -24 776
