25

-47
-12
-39
-27
-26

-12
-18
17
-31
-5

-9
-14
14
-28
19

-49
-19
-37
-62
-11

12
-38
-50
13
24

16
-34
-20
-35
23

-24
-54
-27
-31
-23

6
-26
2
11
1

-38
-32
13
-56
-2

3
-50
-25
8
5

-41
-19
-28
-25
-45

1
24
-42
1
-14

-4
19
-17
-20
-23

12
-37
6
25
-29

-29
-59
-12
-57
16

8
-27
-28
-24
1

-46
-53
-40
-50
5

10
20
5
-61
1

-47
-22
-35
-49
-21

-22
-59
12
-37
9

-32
-46
-62
14
-61

-20
-38
13
5
8

-45
-29
-27
-35
-32

5
24
1
3
-58

-55
5
-34
-58
-28
