25

5
3
-1
9
7
-1

8
3
-1
2
1
-1
1
-2
-2

3
3
-1
1

2
8
8

1
7
2
-1
2
-2
2
-2
1
-2
1

8
1
1
-1
3
5
-2
-2
1

5
9
-1
9
2
1

4
2
-1
1
8

7
9
1
-2
9
-1
-2
9

3
7
5
-1

1
6
-1
1
5
7
-3
-1
3
-2
9

9
5
4
5
-2
-1
1
4
-3
-3

7
2
1
1
8
9
1
6

6
1
3
-1
-2
7
-1

1
2
-1
9
1
1
2
2
1
-1
-4

6
3
-1
4
-1
7
-1

3
8
1
-1

1
1
6
-2
8
1
1
5
8
-2
-5

6
3
8
-1
1
1
5

9
1
-1
9
-1
9
-1
1
6
-1

9
1
9
-2
-1
6
7
-2
1
4

1
4
-1
1
9
9
1
9
9
-4
-6

9
8
4
-1
-2
8
6
-2
1
-2

9
3
6
2
9
-4
5
2
-3
-1

3
8
1
-2
