27

8
3
5
-2
2

-4
2
8

3
7
7
-2
1

8
-3
8
8
6
5
-1
8
-3
6
6

6
-4
-1
-4
-4
5
-3
6
2
4

-3
7
6
-2
-4
5
8
1
1

-1
8
5
4
-3
5

-4

8
4
4
6
1
-1
3
2
-4
-3
1
3
4

7
6
-3
-1
1
-4
6

-4
2
-4
3
-3
1
-1
1
-2
2
3
1

-2
3
-3
3
8
8
5
-2

1
5
8
8
7
-4
2
1
-1
8
6

2
-3

8
5
2
6

-3
-1
1
7
8
1
1
2
-1
3

8
8
-4

5
-2
2

8

8
7
1
8

-1
-4
3
-3

3
7
2
8
1

1
4
8
4
-2
4
7
-1
1
8
3
-1

-2
6
8
8
1
3
2
3

-1
2
-2
-4
2
3
3
4
4

3
-1
6
-3
-2
1

-4
4
4
1
1
8
-4
7
-1
5
3
4
