-64 -24 -40 840
-16 -64 896
-24 -8 40 -56 832
-64 -64 -48 8 -48 -40 -48 616
-40 -48 -16 -32 824
-56 -40 -64 -8 -8 776
-64 -40 -40 824
992
-24 -16 -8 -24 -40 -48 -8 768
-8 40 -48 -48 816
-16 -24 -8 -24 -8 872
-24 24 -64 -64 -40 736
8 -40 -64 -16 -8 24 -56 -64 -48 592
-16 968
-64 -40 -16 -48 792
8 -56 -64 -8 -8 -16 -24 752
-64 -64 848
-40 -16 920
-64 920
-64 -56 -8 -64 768
-24 960
-24 -56 -16 -64 -8 784
8 -32 -64 -32 -56 -64 -24 656
-48 -64 -64 -8 -24 -16 -24 688
-16 -16 -24 -24 -32 -32 800
-48 -8 920
-32 -32 -8 8 -64 -56 -40 -32 656
