30

15
14
9
15
-2
4
-4
1
-1

2
13
16
-1
-1
23
9
24
-4
18
-2
21

17
-1
19
7
7
7
-2
6
-3
14

13
24
-2
1
-2
-1
9
20
16

1
24
1
21
-3
-2
20
-2
-2
1
-1

10
18
-1
23
21
11
-3
-2
10

15
13
11
4
-1
-2

16
-1
17
2
-1
-1
8
-1

7
13
23
11
-2
14
-4
-1

12
9
4
24
-2
9
-1
-1
5
-2
-1
23

20
16
21
9
-3
9
-2
23
-4
-2

22
-1
12
9
1
-3
6

17
15
-1
-1
16
1
-2
14
-2
7
9

20
-1
4
12
4
8

13
-1
18
5
5
-3
6
-1
23
6
-3

19
17
16

8
-1
22
-1
21
22
-2
13
23

15
7

24
6
12
-2
22
19
-3
2
-1
21
-4

11
-1
20
22
7
-1
8

18
20
-2
24
-1
-1
21
1
8
-2

13
-1
20
-1
17
3
3
23
-2

2
19
18
12
-4
-2
-1
-1
14

21
20
7
-2
-2

20
-1
15
6
16
-1

18
21
20
1
-3
-3
15
19

20
-1

15
15
6
-3
-1
10
-1

7
9
2
-1
22
-2

15
-1
17
17
2
14
-1
-2
4
