-56 928
992
-56 928
992
-8 976
-24 960
992
992
992
-64 920
992
992
-8 976
-72 -48 856
992
-16 -64 896
992
-72 -16 888
-32 -24 920
-72 912
-64 920
992
992
992
-40 944
-40 -72 -40 816
-8 976
-72 912
992
992
-40 944
-8 976
-32 -40 -56 -72 760
992
992
992
-48 936
992
-48 936
-24 960
-8 976
992
992
-56 928
-48 936
-64 920
-24 -24 928
-24 960
-48 936
-32 952
-24 960
992
992
992
992
-24 24 -8 912
992
992
-56 928
-8 -72 -72 816
-56 928
-24 960
-48 936
-56 928
-48 936
-8 976
-8 976
-24 960
992
-32 952
992
-72 912
-40 944
992
-24 960
992
-72 912
-16 968
-8 976
-56 928
-56 -24 896
-56 928
