25

5
6
-4
7
-2
9
9
8
5
-2
7
4
-1
7

10
-3
8
4
1
2
4
7
-2
-2
10

-3
7
-5
-4
1

9
7
-2
-1
3
5
9
1
9
6
7
3
6
-5

-5
2
3
3
-3
-4
-2
9
1

10
7
-3
3

-1
-4
-5
8
1
-2
5
5
5
4
-2
-3
5
-3
4

-4
10
10
7
1
10
-5
9
3
4
1
-5
5

-2
4
-4
-2
1
7
2
-5
7

-2
10
8
6

9
5
-3
-1
8
2
4
10
8
1
3
10

-1
-2
-1
6
5

6
7
10
3
2
10
-3

4
-3
5

8

-4
10
4
5
-2
4
7
5
9
-2

5
8
-3
6
-4
6
4
-5
-4
-4

1
-5
10

-2
3
8
-4
-4
6
-2

9
8
-4
-4
-4
3
-2
9
8
-2
-1
9
8

4
2
10
-5
10
10
6
1
8
6
9
1
4
1

5
1
2
1
1
2
3
3
3
-2
-3
1

7
4
6
1

-3
-1
-1
7
5
-2
6
10
1
-3
-2
4
7
8
9

6
6
